{
	"gitlab": {
		"token": "ENC[AES256_GCM,data:mwrEkVW/pNiNbZDBG6dAP3U2zKM=,iv:iyoZbciMn9QoibD+RLLcJfX6RHtkV/1fx4NJOKtT4sw=,tag:H3eINC+98UVQE5u2VSTu/g==,type:str]",
		"runnerRegistrationToken": "ENC[AES256_GCM,data:twczt9pGPsNlBJaUMKcuo0i1HvPTm3jr2KU4YsQ=,iv:cbJFmtY9prtaJQcANSDBXyUIT4u4V4+zBtF7VVNy/xQ=,tag:bhUyDUEDSeeq5haCYvrX1Q==,type:str]"
	},
	"maas": {
		"api_key": "ENC[AES256_GCM,data:Z05JVh/pzlXCKk/81+telzqH9FjtB+RpwI9Jp8gAxX2i9gmpDil0S42MvVAOvICNZmTVEuIZW91SCzynscUTmdu0xYiROg==,iv:PA2NyxEk5B1L2Xq+iUtHC85v29XwpC1rdf+e/vr1zrw=,tag:CLRvqb7dJxcIR/yfJoDT1A==,type:str]"
	},
	"unifi": {
		"password": "ENC[AES256_GCM,data:NoPr0U7XzRVoEQAmXGQsCufV,iv:ypG9zVZ2qXwlmhG51ccBjyWqltl2cRquOoYZKPVufXc=,tag:DuBE4C5sX2u097t2ouYtOw==,type:str]",
		"daheim-passphrase": "ENC[AES256_GCM,data:eg28KU63pQXVc94a,iv:oiYIKsYiX93jVLQv5aGdXaeijbQHicvXK1W7DgX5JsQ=,tag:+aDRA1mty6XDSkvU357CRg==,type:str]",
		"guest-passphrase": "ENC[AES256_GCM,data:NkGOVCBifKlWibEjD5zyOcu4ixPFaQ2NpcNkJtAwGSonmw==,iv:rvxSoMwiN55EBA9MWS9c2gbl1hoIPrsBgoa/2r1VCSA=,tag:qA8yn+02Qkh/2XUM+OQzew==,type:str]",
		"nord-passphrase": "ENC[AES256_GCM,data:mDc0ai6J3+9hs2s=,iv:L7oZzAFs5Mm9Xpk7KEKclYzamYrZIP2jMyCrxh9juHU=,tag:7F7vOkYs+f7Z3EWjVnzrlA==,type:str]"
	},
	"sops": {
		"kms": null,
		"gcp_kms": null,
		"azure_kv": null,
		"hc_vault": null,
		"age": [
			{
				"recipient": "age1zwtl7s096tnu9dlwjs994zhw2r2attrf696gdnv0rpzyvam6mdksxqg6wk",
				"enc": "-----BEGIN AGE ENCRYPTED FILE-----\nYWdlLWVuY3J5cHRpb24ub3JnL3YxCi0+IFgyNTUxOSA4TWxpZmZoSEVybkZibkRL\nWjdaT3NSaHFYSXFKTE5UeVhIL2ZYMnJHTFV3Cm1Gc3VhdmttV3NXaWYzeFFqd0ho\nNFZJVXRRTzUvNnY1TGZVK0F4Q3NIVVkKLS0tIHBicU42Zlk5anhUaG8rQkJBNHlj\nOU1ZVXJOREVobHo3ZkpVd0ZURWsva2sKY8UjJ/XZC/bXKN1o8mZuj4+fvIaZrWZ1\nwwYEK5ZoV/grUMk2unD4mX73rk835WzmshTgo1Ot8hwuwlLAPI8OEw==\n-----END AGE ENCRYPTED FILE-----\n"
			},
			{
				"recipient": "age1am82cpkaxj83vkk3y799ux86vuerrfn650jtqa75y5jq6e4f8uxsl3xz07",
				"enc": "-----BEGIN AGE ENCRYPTED FILE-----\nYWdlLWVuY3J5cHRpb24ub3JnL3YxCi0+IFgyNTUxOSBzNEplaHZ5T2gwNDB5ZlY3\nY1Q3RTk4UTBsakI3cmYwdzZSWnJ5anJaRkhJClRWeWFadzBvcTRhb3NqYjcrRTA5\nK2VrYVArUklnWUx1TVdqUHllQWxvTU0KLS0tIC9meXQvei9NR21PS0VqcUlCVnFR\nc3pIalE1OTBIdXFxSGtPOU5vaGdDQ28KaGL4nloLGXg0oDnKhWowdyUiU02ppp1N\nsc+gVknocd9ktLjaWfum+Vxhw4bZAb/sPxYud8KacYswlrKKSCTiRw==\n-----END AGE ENCRYPTED FILE-----\n"
			}
		],
		"lastmodified": "2024-04-16T13:55:03Z",
		"mac": "ENC[AES256_GCM,data:PzC1KQjSvyt/6FS/W7O4CXw7W9NLq30kyqYQ/QS09cV0jyfzRzZzXxs7cCmRdvQ6YeB19eAqISyGv6UesODnQVPpFDqBxtW52nNvV/iPVS7rKIDQJt1uuly2JkMXMOSXflm36B0M6gZW4bD1DA7QMG6XNRHgijDKKyEG/mNgiFo=,iv:R1nRYy/WctuwJLZaL+s6uu8rtN3zFeJu6Nkmd8qywsA=,tag:lhhM47qwJCHUNb6FEBSq2A==,type:str]",
		"pgp": null,
		"unencrypted_suffix": "_unencrypted",
		"version": "3.7.1"
	}
}